ptmin	maxlogw
6	4.25
9	4.25
12	4.25
15	4.25
18	4.25
21	4.25
24	4.25
28	4.25
32	4.25
37	4.25
43	4.25
49	4.25
56	4.25
64	4.25
74	4.25
84	4.25
97	4.25
114	1.75
133	1.75
153	-0.125
174	-2.375
196	-2.5
220	-2.5
245	-2.5
272	-4.25
300	-4.25
330	-4.25
362	-5.625
395	-5.625
430	-5.625
468	-5.625
507	-5.625
548	-9
592	-9
638	-9
686	-9
737	-9
790	-9
846	-9
905	-11.375
967	-11.375
1032	-11.375
1101	-11.375
1172	-11.375
1248	-12.875
1327	-12.875
1410	-12.875
1497	-12.875
1588	-14.125
1684	-14.125
1784	-14.125
1890	-14.625
2000	-14.625
2116	-14.625
2238	-14.625
2366	-16.625
2500	-16.625
2640	-16.625
2787	-16.625
2941	-17.875
3103	-17.875
3273	-17.875
3450	-20.125
3637	-20.125
3832	-20.125
4037	-20.125
4252	-22.625
4477	-22.625
4713	-22.625
4961	-22.625
5220	-22.625
5492	-22.625
5777	-22.625
6076	-22.625
6389	-22.625
